[gd_scene load_steps=4 format=2]

[ext_resource path="res://assets/playerBullet.png" type="Texture" id=1]
[ext_resource path="res://scenes/player/bullet.gd" type="Script" id=2]

[sub_resource type="RectangleShape2D" id=1]
extents = Vector2( 5.09184, 8.87965 )

[node name="bullet" type="RigidBody2D" groups=[
"playerBullet",
]]
gravity_scale = 0.0
contacts_reported = 2
contact_monitor = true
script = ExtResource( 2 )

[node name="Sprite" type="Sprite" parent="."]
scale = Vector2( 0.0839345, 0.0839345 )
texture = ExtResource( 1 )

[node name="CollisionShape2D" type="CollisionShape2D" parent="."]
position = Vector2( 19.8359, 0.353554 )
shape = SubResource( 1 )
disabled = true

[node name="DamageArea" type="Area2D" parent="."]

[node name="CollisionShape2D2" type="CollisionShape2D" parent="DamageArea"]
position = Vector2( 19.8359, 0.353554 )
shape = SubResource( 1 )
[connection signal="body_entered" from="DamageArea" to="." method="_on_DamageArea_body_entered"]
