[gd_scene load_steps=4 format=2]

[ext_resource path="res://scenes/menu/Intro.gd" type="Script" id=1]
[ext_resource path="res://scenes/GlowEnvironment.tscn" type="PackedScene" id=2]
[ext_resource path="res://Font/MediumSize.tres" type="DynamicFont" id=3]

[node name="Intro" type="ColorRect"]
anchor_right = 1.0
anchor_bottom = 1.0
color = Color( 0, 0, 0, 1 )
script = ExtResource( 1 )
__meta__ = {
"_edit_use_anchors_": false
}

[node name="Message" type="Label" parent="."]
margin_left = 93.0
margin_top = 259.622
margin_right = 1197.0
margin_bottom = 668.622
custom_fonts/font = ExtResource( 3 )
text = "Message"
align = 1
__meta__ = {
"_edit_use_anchors_": false
}

[node name="GlowEffect" parent="." instance=ExtResource( 2 )]

[node name="Node2D" type="Node2D" parent="."]
position = Vector2( 646.295, 295.571 )

[node name="SkipButton" type="LinkButton" parent="."]
margin_left = 1132.78
margin_top = 15.5564
margin_right = 1247.78
margin_bottom = 56.5564
custom_fonts/font = ExtResource( 3 )
text = "Skip>>"
__meta__ = {
"_edit_use_anchors_": false
}
[connection signal="pressed" from="SkipButton" to="." method="_on_SkipButton_pressed"]
